[
    {
        "Symbol": "P",
        "Output": "S S",
        "Weight": 0.5
    },
    {
        "Symbol": "P",
        "Output": "S S S",
        "Weight": 1.0
    },
    {
        "Symbol": "P",
        "Output": "S S S S",
        "Weight": 1.0
    },
    {
        "Symbol": "P",
        "Output": "S S S S S",
        "Weight": 0.5
    }
]